<?xml version="1.0" encoding="UTF-8" standalone="no"?>
<!-- Created with Inkscape (http://www.inkscape.org/) -->

<svg
   xmlns:dc="http://purl.org/dc/elements/1.1/"
   xmlns:cc="http://creativecommons.org/ns#"
   xmlns:rdf="http://www.w3.org/1999/02/22-rdf-syntax-ns#"
   xmlns:svg="http://www.w3.org/2000/svg"
   xmlns="http://www.w3.org/2000/svg"
   xmlns:sodipodi="http://sodipodi.sourceforge.net/DTD/sodipodi-0.dtd"
   xmlns:inkscape="http://www.inkscape.org/namespaces/inkscape"
   width="200.75223mm"
   height="126.17588mm"
   viewBox="0 0 711.32679 447.07989"
   id="svg2"
   version="1.1"
   inkscape:version="0.91 r13725"
   sodipodi:docname="Abfallpyramide.svg"
   inkscape:export-filename="/home/nicole/Files/THM/PhysicalComputing/Abfallpyramide.png"
   inkscape:export-xdpi="90"
   inkscape:export-ydpi="90">
  <defs
     id="defs4">
    <marker
       inkscape:stockid="Arrow1Lstart"
       orient="auto"
       refY="0"
       refX="0"
       id="marker8496"
       style="overflow:visible"
       inkscape:isstock="true">
      <path
         id="path8498"
         d="M 0,0 5,-5 -12.5,0 5,5 0,0 Z"
         style="fill:#000000;fill-opacity:1;fill-rule:evenodd;stroke:#000000;stroke-width:1pt;stroke-opacity:1"
         transform="matrix(0.8,0,0,0.8,10,0)"
         inkscape:connector-curvature="0" />
    </marker>
    <marker
       inkscape:stockid="TriangleInL"
       orient="auto"
       refY="0"
       refX="0"
       id="TriangleInL"
       style="overflow:visible"
       inkscape:isstock="true">
      <path
         id="path8249"
         d="m 5.77,0 -8.65,5 0,-10 8.65,5 z"
         style="fill:#000000;fill-opacity:1;fill-rule:evenodd;stroke:#000000;stroke-width:1pt;stroke-opacity:1"
         transform="scale(-0.8,-0.8)"
         inkscape:connector-curvature="0" />
    </marker>
    <marker
       inkscape:stockid="Arrow2Lstart"
       orient="auto"
       refY="0"
       refX="0"
       id="Arrow2Lstart"
       style="overflow:visible"
       inkscape:isstock="true">
      <path
         id="path8134"
         style="fill:#000000;fill-opacity:1;fill-rule:evenodd;stroke:#000000;stroke-width:0.625;stroke-linejoin:round;stroke-opacity:1"
         d="M 8.7185878,4.0337352 -2.2072895,0.01601326 8.7185884,-4.0017078 c -1.7454984,2.3720609 -1.7354408,5.6174519 -6e-7,8.035443 z"
         transform="matrix(1.1,0,0,1.1,1.1,0)"
         inkscape:connector-curvature="0" />
    </marker>
    <marker
       inkscape:stockid="Arrow1Lstart"
       orient="auto"
       refY="0"
       refX="0"
       id="marker8392"
       style="overflow:visible"
       inkscape:isstock="true">
      <path
         id="path8394"
         d="M 0,0 5,-5 -12.5,0 5,5 0,0 Z"
         style="fill:#000000;fill-opacity:1;fill-rule:evenodd;stroke:#000000;stroke-width:1pt;stroke-opacity:1"
         transform="matrix(0.8,0,0,0.8,10,0)"
         inkscape:connector-curvature="0" />
    </marker>
    <marker
       inkscape:stockid="Arrow1Lstart"
       orient="auto"
       refY="0"
       refX="0"
       id="Arrow1Lstart"
       style="overflow:visible"
       inkscape:isstock="true">
      <path
         id="path8116"
         d="M 0,0 5,-5 -12.5,0 5,5 0,0 Z"
         style="fill:#000000;fill-opacity:1;fill-rule:evenodd;stroke:#000000;stroke-width:1pt;stroke-opacity:1"
         transform="matrix(0.8,0,0,0.8,10,0)"
         inkscape:connector-curvature="0" />
    </marker>
  </defs>
  <sodipodi:namedview
     id="base"
     pagecolor="#ffffff"
     bordercolor="#666666"
     borderopacity="1.0"
     inkscape:pageopacity="0.0"
     inkscape:pageshadow="2"
     inkscape:zoom="0.7"
     inkscape:cx="336.22008"
     inkscape:cy="189.99237"
     inkscape:document-units="px"
     inkscape:current-layer="layer1"
     showgrid="false"
     fit-margin-top="0"
     fit-margin-left="0"
     fit-margin-right="0"
     fit-margin-bottom="0"
     inkscape:window-width="1362"
     inkscape:window-height="729"
     inkscape:window-x="0"
     inkscape:window-y="18"
     inkscape:window-maximized="0" />
  <metadata
     id="metadata7">
    <rdf:RDF>
      <cc:Work
         rdf:about="">
        <dc:format>image/svg+xml</dc:format>
        <dc:type
           rdf:resource="http://purl.org/dc/dcmitype/StillImage" />
        <dc:title></dc:title>
      </cc:Work>
    </rdf:RDF>
  </metadata>
  <g
     inkscape:label="Layer 1"
     inkscape:groupmode="layer"
     id="layer1"
     transform="translate(-13.312352,-9.5680195)">
    <flowRoot
       xml:space="preserve"
       id="flowRoot8082"
       style="font-style:normal;font-weight:normal;font-size:40px;line-height:125%;font-family:sans-serif;letter-spacing:0px;word-spacing:0px;fill:#000000;fill-opacity:1;stroke:none;stroke-width:1px;stroke-linecap:butt;stroke-linejoin:miter;stroke-opacity:1"><flowRegion
         id="flowRegion8084"><rect
           id="rect8086"
           width="281.42856"
           height="188.57143"
           x="74.285713"
           y="56.647919" /></flowRegion><flowPara
         id="flowPara8088"></flowPara></flowRoot>    <text
       xml:space="preserve"
       style="font-style:normal;font-weight:normal;font-size:40px;line-height:125%;font-family:sans-serif;letter-spacing:0px;word-spacing:0px;fill:#000000;fill-opacity:1;stroke:none;stroke-width:1px;stroke-linecap:butt;stroke-linejoin:miter;stroke-opacity:1"
       x="819.02667"
       y="152.3622"
       id="text8701"
       sodipodi:linespacing="125%"><tspan
         sodipodi:role="line"
         id="tspan8703"
         x="819.02667"
         y="152.3622"></tspan></text>
    <path
       sodipodi:type="star"
       style="opacity:1;fill:none;fill-opacity:1;stroke:#000000;stroke-width:2;stroke-miterlimit:4;stroke-dasharray:none;stroke-opacity:1"
       id="path8068"
       sodipodi:sides="3"
       sodipodi:cx="331.42859"
       sodipodi:cy="193.79079"
       sodipodi:r1="364.28851"
       sodipodi:r2="182.14426"
       sodipodi:arg1="1.5668748"
       sodipodi:arg2="2.6140723"
       inkscape:flatsided="false"
       inkscape:rounded="0"
       inkscape:randomized="0"
       d="M 332.85715,558.0765 174.04539,285.48081 15.233626,12.885103 330.7143,11.647931 646.19499,10.410758 489.52607,284.24362 Z"
       inkscape:transform-center-x="0.71470223"
       inkscape:transform-center-y="70.92254"
       transform="matrix(1.0005842,0,0,0.78408307,7.8067998,8.1945228)" />
    <text
       xml:space="preserve"
       style="font-style:normal;font-variant:normal;font-weight:normal;font-stretch:normal;font-size:27.5px;line-height:125%;font-family:sans-serif;-inkscape-font-specification:'sans-serif, Normal';text-align:center;letter-spacing:0px;word-spacing:0px;writing-mode:lr-tb;text-anchor:middle;fill:#000000;fill-opacity:1;stroke:none;stroke-width:1px;stroke-linecap:butt;stroke-linejoin:miter;stroke-opacity:1"
       x="338"
       y="53.505058"
       id="text8070"
       sodipodi:linespacing="125%"><tspan
         sodipodi:role="line"
         x="338"
         y="53.505058"
         id="tspan8090">Vermeidung</tspan><tspan
         sodipodi:role="line"
         x="338"
         y="87.880058"
         id="tspan8094" /><tspan
         sodipodi:role="line"
         x="338"
         y="122.25506"
         id="tspan8074">Wiederverwendung</tspan><tspan
         sodipodi:role="line"
         x="338"
         y="156.63007"
         id="tspan8096" /><tspan
         sodipodi:role="line"
         x="338"
         y="191.00507"
         id="tspan8076">Recycling</tspan><tspan
         sodipodi:role="line"
         x="338"
         y="225.38007"
         id="tspan8098" /><tspan
         sodipodi:role="line"
         x="338"
         y="259.75507"
         id="tspan8078">Verwertung</tspan><tspan
         sodipodi:role="line"
         x="338"
         y="294.13007"
         id="tspan8100" /><tspan
         sodipodi:role="line"
         x="338"
         y="328.50507"
         id="tspan8080">Beseitigung</tspan></text>
    <path
       style="fill:none;fill-rule:evenodd;stroke:#000000;stroke-width:0.98477066px;stroke-linecap:butt;stroke-linejoin:miter;stroke-opacity:1"
       d="m 62.285714,72.647918 549.999996,0"
       id="path8102"
       inkscape:connector-curvature="0" />
    <path
       style="fill:none;fill-rule:evenodd;stroke:#000000;stroke-width:0.97628123px;stroke-linecap:butt;stroke-linejoin:miter;stroke-opacity:1"
       d="m 122.28571,148.07649 435.71429,0"
       id="path8104"
       inkscape:connector-curvature="0" />
    <path
       style="fill:none;fill-rule:evenodd;stroke:#000000;stroke-width:0.96953595px;stroke-linecap:butt;stroke-linejoin:miter;stroke-opacity:1"
       d="m 508,216.07649 -335.71429,0"
       id="path8106"
       inkscape:connector-curvature="0" />
    <path
       style="fill:none;fill-rule:evenodd;stroke:#000000;stroke-width:0.95643753px;stroke-linecap:butt;stroke-linejoin:miter;stroke-opacity:1"
       d="m 455.14286,288.07649 -230,0"
       id="path8108"
       inkscape:connector-curvature="0" />
    <path
       style="fill:none;fill-rule:evenodd;stroke:#000000;stroke-width:1.01472962;stroke-linecap:butt;stroke-linejoin:miter;stroke-miterlimit:4;stroke-dasharray:none;stroke-opacity:1;marker-start:url(#marker8496)"
       d="m 683.71429,18.416215 0,444.231705"
       id="path8110"
       inkscape:connector-curvature="0" />
    <text
       xml:space="preserve"
       style="font-style:normal;font-weight:normal;font-size:40px;line-height:125%;font-family:sans-serif;letter-spacing:0px;word-spacing:0px;fill:#000000;fill-opacity:1;stroke:none;stroke-width:1px;stroke-linecap:butt;stroke-linejoin:miter;stroke-opacity:1"
       x="706.68878"
       y="0.93363893"
       id="text8780"
       sodipodi:linespacing="125%"><tspan
         sodipodi:role="line"
         id="tspan8782"
         x="706.68878"
         y="0.93363893"
         style="text-align:center;text-anchor:middle" /><tspan
         sodipodi:role="line"
         x="706.68878"
         y="38.474274"
         style="font-style:normal;font-variant:normal;font-weight:normal;font-stretch:normal;font-size:27.5px;line-height:125%;font-family:sans-serif;-inkscape-font-specification:'sans-serif, Normal';text-align:center;writing-mode:lr-tb;text-anchor:middle"
         id="tspan8794">+</tspan><tspan
         sodipodi:role="line"
         x="706.68878"
         y="72.849274"
         style="font-style:normal;font-variant:normal;font-weight:normal;font-stretch:normal;font-size:27.5px;line-height:125%;font-family:sans-serif;-inkscape-font-specification:'sans-serif, Normal';text-align:center;writing-mode:lr-tb;text-anchor:middle"
         id="tspan8830" /><tspan
         sodipodi:role="line"
         x="706.68878"
         y="107.22427"
         style="font-style:normal;font-variant:normal;font-weight:normal;font-stretch:normal;font-size:27.5px;line-height:125%;font-family:sans-serif;-inkscape-font-specification:'sans-serif, Normal';text-align:center;writing-mode:lr-tb;text-anchor:middle"
         id="tspan8828">p</tspan><tspan
         sodipodi:role="line"
         x="706.68878"
         y="141.59927"
         style="font-style:normal;font-variant:normal;font-weight:normal;font-stretch:normal;font-size:27.5px;line-height:125%;font-family:sans-serif;-inkscape-font-specification:'sans-serif, Normal';text-align:center;writing-mode:lr-tb;text-anchor:middle"
         id="tspan8796">r</tspan><tspan
         sodipodi:role="line"
         x="706.68878"
         y="175.97427"
         style="font-style:normal;font-variant:normal;font-weight:normal;font-stretch:normal;font-size:27.5px;line-height:125%;font-family:sans-serif;-inkscape-font-specification:'sans-serif, Normal';text-align:center;writing-mode:lr-tb;text-anchor:middle"
         id="tspan8798">i</tspan><tspan
         sodipodi:role="line"
         x="706.68878"
         y="210.34927"
         style="font-style:normal;font-variant:normal;font-weight:normal;font-stretch:normal;font-size:27.5px;line-height:125%;font-family:sans-serif;-inkscape-font-specification:'sans-serif, Normal';text-align:center;writing-mode:lr-tb;text-anchor:middle"
         id="tspan8800">o</tspan><tspan
         sodipodi:role="line"
         x="706.68878"
         y="244.72427"
         style="font-style:normal;font-variant:normal;font-weight:normal;font-stretch:normal;font-size:27.5px;line-height:125%;font-family:sans-serif;-inkscape-font-specification:'sans-serif, Normal';text-align:center;writing-mode:lr-tb;text-anchor:middle"
         id="tspan8802">r</tspan><tspan
         sodipodi:role="line"
         x="706.68878"
         y="279.09927"
         style="font-style:normal;font-variant:normal;font-weight:normal;font-stretch:normal;font-size:27.5px;line-height:125%;font-family:sans-serif;-inkscape-font-specification:'sans-serif, Normal';text-align:center;writing-mode:lr-tb;text-anchor:middle"
         id="tspan8804">i</tspan><tspan
         sodipodi:role="line"
         x="706.68878"
         y="313.47427"
         style="font-style:normal;font-variant:normal;font-weight:normal;font-stretch:normal;font-size:27.5px;line-height:125%;font-family:sans-serif;-inkscape-font-specification:'sans-serif, Normal';text-align:center;writing-mode:lr-tb;text-anchor:middle"
         id="tspan8806">t</tspan><tspan
         sodipodi:role="line"
         x="706.68878"
         y="347.84927"
         style="font-style:normal;font-variant:normal;font-weight:normal;font-stretch:normal;font-size:27.5px;line-height:125%;font-family:sans-serif;-inkscape-font-specification:'sans-serif, Normal';text-align:center;writing-mode:lr-tb;text-anchor:middle"
         id="tspan8808">ä</tspan><tspan
         sodipodi:role="line"
         x="706.68878"
         y="382.22427"
         id="tspan8792"
         style="font-style:normal;font-variant:normal;font-weight:normal;font-stretch:normal;font-size:27.5px;line-height:125%;font-family:sans-serif;-inkscape-font-specification:'sans-serif, Normal';text-align:center;writing-mode:lr-tb;text-anchor:middle">t</tspan><tspan
         sodipodi:role="line"
         x="706.68878"
         y="416.59927"
         style="font-style:normal;font-variant:normal;font-weight:normal;font-stretch:normal;font-size:27.5px;line-height:125%;font-family:sans-serif;-inkscape-font-specification:'sans-serif, Normal';text-align:center;writing-mode:lr-tb;text-anchor:middle"
         id="tspan8832" /><tspan
         sodipodi:role="line"
         x="706.68878"
         y="450.97427"
         style="font-style:normal;font-variant:normal;font-weight:normal;font-stretch:normal;font-size:27.5px;line-height:125%;font-family:sans-serif;-inkscape-font-specification:'sans-serif, Normal';text-align:center;writing-mode:lr-tb;text-anchor:middle"
         id="tspan8834">-</tspan></text>
  </g>
</svg>
